[gd_resource type="Theme" load_steps=2 format=2]

[ext_resource path="res://fonts/catv_20.tres" type="DynamicFont" id=1]

[resource]

default_font = ExtResource( 1 )
_sections_unfolded = [ "Resource" ]

