[gd_resource type="Theme" load_steps=3 format=2]

[ext_resource path="res://ClearSans-Medium.ttf" type="DynamicFontData" id=1]

[sub_resource type="DynamicFont" id=1]

size = 20
use_mipmaps = false
use_filter = false
extra_spacing_top = -5
extra_spacing_char = 1
font_data = ExtResource( 1 )
_sections_unfolded = [ "Extra Spacing", "Font", "Settings" ]

[resource]

default_font = SubResource( 1 )
_sections_unfolded = [ "Resource" ]

